{
    "migIndex": 1,
    "data": [
      {
        "path": "src/assets/fonts/SeuzOne/SuezOne-Regular.ttf",
        "sha1": "e8eaad00863f66dd31a2fc71c2e8f84a66bfafef"
      },
      {
        "path": "src/assets/fonts/SeuzOne/SuezOne-Regular.ttf",
        "sha1": "e8eaad00863f66dd31a2fc71c2e8f84a66bfafef"
      }
    ]
  }